{
  "scan": {
    "analysis": {
      "0": {
        "algorithm": "ScurveFitter"
      },
     "1": {
        "algorithm": "ParameterAnalysis"
      },
     "2": {
        "algorithm": "OccupancyAnalysis"
      },
     "3": {
        "algorithm": "TotAnalysis",
        "config": {
            "tot_bins": {
                "n_bins": 2048,
                "x_lo" : 0,
                "x_hi" : 400
            },
            "tot_sigma_bins": {
                "n_bins": 11,
                "x_lo": -0.5,
                "x_hi": 10.5
            },
            "tot_unit": "1.5625 ns"
        }
      },
      "n_count": 2
    },
    "histogrammer": {
      "0": {
        "algorithm": "OccupancyMap",
        "config": {}
      },
      "1": {
        "algorithm": "TotMap",
        "config": {}
      },
      "2": {
        "algorithm": "Tot2Map",
        "config": {}
      },
      "3": {
        "algorithm": "TagDist",
        "config": {}
      },
      "4": {
        "algorithm": "HitsPerEvent",
        "config": {}
      },
      "5": {
        "algorithm": "DataArchiver",
        "config": {}
      },
      "n_count": 4
    },
    "loops": [
      {
        "config": {
          "max": 768,
          "min": 0,
          "step": 16,
          "maskType": 3
        },
        "loopAction": "Rd53bMaskLoop"
      },
      {
        "config": {
          "max": 250,
          "min": 0,
          "step": 5,
          "parameter":"InjVcalDiff"
        },
        "loopAction": "StdParameterLoop"
      },
      {
        "config": {
          "max": 50,
          "min": 0,
          "step": 1,
          "nSteps": 2,
          "usePToT": true
        },
        "loopAction": "Rd53bCoreColLoop"
      },
      {
        "config": {
          "count": 50,
          "delay": 56,
          "extTrigger": false,
          "frequency": 5000,
          "noInject": false,
          "time": 0,
          "edgeMode": false
        },
        "loopAction": "Rd53bTriggerLoop"
      },
      {
        "loopAction": "StdDataLoop"
      }
    ],
    "name": "DigitalScan",
    "prescan": {
        "InjDigEn": 0,
        "InjVcalMed": 200,
        "InjVcalRange": 1,
        "Latency": 60,
        "TotEnPtot": 1,
        "TotEnPtoa": 1,
        "TotPtotLatency": 2
    }
  }
}
