{
    "chipType" : "RD53A",
    "chips" : [
        {
            "config" : "configs/rd53a_test.json",
            "tx" : 0,
            "rx" : 0,
            "enable" : 1,
            "locked" : false
        },
        {
            "config" : "configs/rd53a_test_1.json",
            "tx" : 1,
            "rx" : 1,
            "enable" : 0,
            "locked" : false
        }
    ]
}
